INDEX VERSION 1.131+C:\Users\ADM\eclipse-workspace\silinum\.metadata\.plugins\org.eclipse.jdt.core
2459753851.index
769271706.index
482580299.index
3829792037.index
3981861316.index
2970263172.index
2655310788.index
1039347805.index
965971924.index
1102226877.index
2503696852.index
1938704437.index
489408304.index
4117487822.index
12619151.index
4051931668.index
395326781.index
2867619126.index
4073631159.index
